<svg width="44" height="24" viewBox="0 0 44 24" fill="none" xmlns="http://www.w3.org/2000/svg">
<g clip-path="url(#clip0)">
<path d="M8.45736 21.8469L10.2917 21.8471C10.9804 21.8656 11.8869 21.9088 12.8823 21.9655C13.6617 22.01 14.3956 21.4919 14.6785 20.6505C14.9461 19.8543 15.0796 18.757 15.0402 17.3043C15.0402 17.0946 15.0269 16.7572 14.9888 16.3218C14.9278 15.6247 14.8191 14.8901 14.6517 14.1492C14.1876 12.0948 13.3639 10.3678 12.1149 9.20394C11.3953 8.53379 10.4462 8.18232 9.42808 8.18232H9.31004C8.29212 8.18232 7.3428 8.53389 6.62373 9.20382C5.37442 10.3679 4.55072 12.0948 4.08669 14.1492C3.91935 14.8901 3.81068 15.6246 3.74968 16.3218C3.71159 16.7571 3.69835 17.0943 3.69819 17.3185C3.66352 18.8677 3.85275 20.0249 4.20595 20.841C4.52193 21.5718 5.18833 21.9967 5.8871 21.9498C6.71607 21.8941 7.59378 21.8558 8.45736 21.8469ZM5.97215 23.2162C4.72689 23.2998 3.56632 22.5597 3.04105 21.345C2.60926 20.3472 2.39076 19.011 2.42912 17.3043C2.42912 17.059 2.44379 16.6853 2.48528 16.2112C2.551 15.46 2.66792 14.6697 2.84865 13.8695C3.36389 11.5884 4.29283 9.64082 5.75853 8.27518C6.71963 7.37977 7.97974 6.91309 9.31004 6.91309H9.42808C10.7586 6.91309 12.0183 7.37963 12.9801 8.27523C14.4455 9.64085 15.3744 11.5884 15.8897 13.8695C16.0705 14.6697 16.1874 15.46 16.2532 16.2111C16.2947 16.6853 16.3094 17.0593 16.3092 17.287C16.3521 18.8618 16.2009 20.1046 15.8816 21.0549C15.4196 22.4289 14.171 23.3104 12.8101 23.2327C11.8265 23.1767 10.9304 23.1339 10.2747 23.1161H8.46716C7.63107 23.1248 6.7778 23.1621 5.97215 23.2162ZM8.46389 23.1161L8.47041 23.1161C8.46933 23.1161 8.46825 23.1161 8.46716 23.1161H8.46389Z" fill="#20B1AA"/>
<path d="M21.3412 21.8469L23.1755 21.8471C23.8642 21.8656 24.7706 21.9088 25.7661 21.9655C26.5455 22.01 27.2794 21.4919 27.5623 20.6505C27.8299 19.8543 27.9634 18.757 27.924 17.3043C27.924 17.0946 27.9107 16.7572 27.8726 16.3218C27.8116 15.6247 27.7029 14.8901 27.5355 14.1492C27.0714 12.0948 26.2477 10.3678 24.9987 9.20394C24.2791 8.53379 23.33 8.18232 22.3119 8.18232H22.1943C21.1759 8.18232 20.2266 8.53386 19.5075 9.20382C18.2582 10.3679 17.4345 12.0948 16.9705 14.1492C16.8031 14.8901 16.6945 15.6246 16.6335 16.3218C16.5954 16.7571 16.5821 17.0943 16.582 17.3185C16.5473 18.8677 16.7365 20.0249 17.0897 20.841C17.4057 21.5718 18.0721 21.9967 18.7709 21.9498C19.5999 21.8941 20.4776 21.8558 21.3412 21.8469ZM18.8559 23.2162C17.6107 23.2998 16.4501 22.5597 15.9248 21.345C15.4931 20.3472 15.2746 19.011 15.3129 17.3043C15.3129 17.059 15.3276 16.6853 15.3691 16.2112C15.4348 15.46 15.5517 14.6697 15.7324 13.8695C16.2477 11.5884 17.1766 9.64082 18.6423 8.27518C19.6035 7.37972 20.8636 6.91309 22.1943 6.91309H22.3119C23.6424 6.91309 24.9021 7.37963 25.8639 8.27523C27.3293 9.64085 28.2582 11.5884 28.7735 13.8695C28.9543 14.6697 29.0712 15.46 29.137 16.2111C29.1785 16.6853 29.1932 17.0593 29.193 17.287C29.2359 18.8618 29.0847 20.1046 28.7654 21.0549C28.3034 22.4289 27.0547 23.3104 25.6938 23.2327C24.7103 23.1767 23.8142 23.1339 23.1584 23.1161H21.351C20.5149 23.1248 19.6616 23.1621 18.8559 23.2162ZM21.3477 23.1161L21.3542 23.1161C21.3531 23.1161 21.352 23.1161 21.351 23.1161H21.3477Z" fill="#20B1AA"/>
<path d="M33.9212 21.8469L35.7551 21.8471C36.4441 21.8656 37.3506 21.9088 38.3462 21.9655C39.1255 22.01 39.8591 21.492 40.1424 20.6505C40.41 19.8541 40.5434 18.7569 40.5036 17.3043C40.5036 17.0943 40.4904 16.7571 40.4523 16.3218C40.3913 15.6246 40.2826 14.8901 40.1153 14.1492C39.6513 12.0948 38.8276 10.3679 37.5783 9.20384C36.8591 8.53379 35.9101 8.18232 34.8919 8.18232H34.7739C33.756 8.18232 32.8067 8.53389 32.0876 9.20382C30.8383 10.3679 30.0146 12.0948 29.5506 14.1492C29.3832 14.8901 29.2745 15.6246 29.2135 16.3218C29.1755 16.7571 29.1622 17.0943 29.1621 17.3185C29.1274 18.8677 29.3166 20.0249 29.6698 20.841C29.9858 21.5718 30.6522 21.9967 31.351 21.9498C32.1799 21.8941 33.0576 21.8558 33.9212 21.8469ZM31.436 23.2162C30.1908 23.2998 29.0302 22.5597 28.5049 21.345C28.0731 20.3472 27.8546 19.011 27.893 17.3043C27.893 17.059 27.9077 16.6853 27.9491 16.2112C28.0149 15.46 28.1318 14.6697 28.3125 13.8695C28.8278 11.5884 29.7567 9.64082 31.2224 8.27518C32.1835 7.37977 33.4436 6.91309 34.7739 6.91309H34.8919C36.2225 6.91309 37.4823 7.37968 38.4435 8.2752C39.9092 9.64082 40.8381 11.5884 41.3533 13.8695C41.5341 14.6697 41.651 15.46 41.7167 16.2112C41.7582 16.6853 41.7729 17.059 41.7726 17.2868C41.816 18.8615 41.6649 20.1044 41.3454 21.0551C40.8829 22.429 39.6347 23.3104 38.2739 23.2327C37.2903 23.1767 36.3942 23.1339 35.7381 23.1161H33.931C33.0949 23.1248 32.2417 23.1621 31.436 23.2162ZM33.9278 23.1161L33.9343 23.1161C33.9332 23.1161 33.9321 23.1161 33.931 23.1161H33.9278Z" fill="#20B1AA"/>
<path d="M19.6847 15.3822C20.0352 15.3895 20.3133 15.6795 20.3059 16.0299C20.2986 16.3803 20.0086 16.6584 19.6582 16.6511C16.9288 16.594 14.2223 16.4762 11.5367 16.3009C11.1869 16.278 10.9219 15.976 10.9447 15.6263C10.9676 15.2765 11.2696 15.0115 11.6193 15.0343C14.2864 15.2085 16.9742 15.3254 19.6847 15.3822Z" fill="#464643"/>
<path d="M32.4827 15.2018C32.8327 15.1846 33.1305 15.4544 33.1477 15.8045C33.1649 16.1546 32.8951 16.4523 32.545 16.4695C29.8226 16.6034 27.0805 16.6779 24.3161 16.6899C23.9656 16.6914 23.6802 16.4085 23.6787 16.058C23.6772 15.7075 23.9601 15.4222 24.3106 15.4206C27.0558 15.4087 29.779 15.3348 32.4827 15.2018Z" fill="#464643"/>
<path d="M6.85825 18.5323C6.50776 18.5323 6.22363 18.2482 6.22363 17.8977V13.2557C6.22363 12.9052 6.50776 12.6211 6.85825 12.6211H11.5002C11.8507 12.6211 12.1349 12.9052 12.1349 13.2557V17.8977C12.1349 18.2482 11.8507 18.5323 11.5002 18.5323H6.85825ZM7.49286 17.2631H10.8656V13.8903H7.49286V17.2631Z" fill="#464643"/>
<path d="M19.6712 18.5323C19.3207 18.5323 19.0366 18.2482 19.0366 17.8977V13.2557C19.0366 12.9052 19.3207 12.6211 19.6712 12.6211H24.3132C24.6637 12.6211 24.9479 12.9052 24.9479 13.2557V17.8977C24.9479 18.2482 24.6637 18.5323 24.3132 18.5323H19.6712ZM23.6786 17.2631V13.8903H20.3059V17.2631H23.6786Z" fill="#464643"/>
<path d="M32.514 18.5323C32.1635 18.5323 31.8794 18.2482 31.8794 17.8977V13.2557C31.8794 12.9052 32.1635 12.6211 32.514 12.6211H37.156C37.5065 12.6211 37.7906 12.9052 37.7906 13.2557V17.8977C37.7906 18.2482 37.5065 18.5323 37.156 18.5323H32.514ZM36.5214 17.2631V13.8903H33.1486V17.2631H36.5214Z" fill="#464643"/>
<path d="M3.06175 15.4218C3.41223 15.4218 3.69636 15.7059 3.69636 16.0564C3.69636 16.4069 3.41223 16.691 3.06175 16.691C1.13993 16.691 -0.305983 14.9427 0.0550077 13.0598L0.963429 8.26002C1.87329 3.46927 6.06485 -0.000183105 10.9432 -0.000183105H33.0414C37.9195 -0.000183105 42.1114 3.46942 43.0213 8.26042L43.9296 13.0594C44.2754 14.8802 42.9358 16.5871 41.094 16.6847C40.744 16.7032 40.4452 16.4345 40.4267 16.0845C40.4081 15.7345 40.6768 15.4358 41.0268 15.4172C42.1012 15.3603 42.885 14.3616 42.6825 13.2958L41.7743 8.49684C40.9782 4.30526 37.3099 1.26905 33.0414 1.26905H10.9432C6.67443 1.26905 3.00646 4.30511 2.21045 8.49645L1.30182 13.2973C1.09061 14.3989 1.93655 15.4218 3.06175 15.4218Z" fill="#464643"/>
<path d="M6.9416 14.6767C7.28908 14.7225 7.53364 15.0413 7.48784 15.3888C7.44203 15.7363 7.12321 15.9808 6.77573 15.935L3.27392 15.4735C2.92644 15.4277 2.68188 15.1088 2.72768 14.7613C2.77348 14.4139 3.0923 14.1693 3.43979 14.2151L6.9416 14.6767Z" fill="#464643"/>
<path d="M37.2453 16.205C36.8983 16.2545 36.5769 16.0134 36.5274 15.6664C36.4779 15.3194 36.7191 14.998 37.0661 14.9485L40.584 14.4467C40.9309 14.3973 41.2523 14.6384 41.3018 14.9854C41.3513 15.3324 41.1102 15.6538 40.7632 15.7033L37.2453 16.205Z" fill="#464643"/>
<path d="M22.6271 13.2558C22.6271 13.6063 22.343 13.8904 21.9925 13.8904C21.642 13.8904 21.3579 13.6063 21.3579 13.2558V11.6519C21.3579 11.3015 21.642 11.0173 21.9925 11.0173C22.343 11.0173 22.6271 11.3015 22.6271 11.6519V13.2558Z" fill="#464643"/>
<path d="M21.3579 17.8977C21.3579 17.5473 21.642 17.2631 21.9925 17.2631C22.343 17.2631 22.6271 17.5473 22.6271 17.8977V19.4606C22.6271 19.8111 22.343 20.0952 21.9925 20.0952C21.642 20.0952 21.3579 19.8111 21.3579 19.4606V17.8977Z" fill="#464643"/>
<path d="M35.4694 13.2558C35.4694 13.6063 35.1853 13.8904 34.8348 13.8904C34.4843 13.8904 34.2002 13.6063 34.2002 13.2558V11.6519C34.2002 11.3015 34.4843 11.0173 34.8348 11.0173C35.1853 11.0173 35.4694 11.3015 35.4694 11.6519V13.2558Z" fill="#464643"/>
<path d="M34.2002 17.8977C34.2002 17.5473 34.4843 17.2631 34.8348 17.2631C35.1853 17.2631 35.4694 17.5473 35.4694 17.8977V19.4606C35.4694 19.8111 35.1853 20.0952 34.8348 20.0952C34.4843 20.0952 34.2002 19.8111 34.2002 19.4606V17.8977Z" fill="#464643"/>
<path d="M9.81415 13.2558C9.81415 13.6063 9.53003 13.8904 9.17954 13.8904C8.82905 13.8904 8.54492 13.6063 8.54492 13.2558V11.6519C8.54492 11.3015 8.82905 11.0173 9.17954 11.0173C9.53003 11.0173 9.81415 11.3015 9.81415 11.6519V13.2558Z" fill="#464643"/>
<path d="M8.54492 17.8977C8.54492 17.5473 8.82905 17.2631 9.17954 17.2631C9.53003 17.2631 9.81415 17.5473 9.81415 17.8977V19.4606C9.81415 19.8111 9.53003 20.0952 9.17954 20.0952C8.82905 20.0952 8.54492 19.8111 8.54492 19.4606V17.8977Z" fill="#464643"/>
</g>
<defs>
<clipPath id="clip0">
<rect width="44" height="24" fill="white"/>
</clipPath>
</defs>
</svg>
